[
  {
    "type": "category",
    "title": "Headings",
    "description": "Choose the size of the heading that you wish to insert. You can use headings at the beginning of a page or to separate sections within a page. The ‘full-width underlined’ heading is particularly useful for separating topics on a page.",
    "children": [
      {
        "type": "category",
        "title": "With small text",
        "description": "",
        "children": [
          {
            "type": "option",
            "title": "Heading 1",
            "content": "<h1>%START_CONTENT%Heading 1%END_CONTENT% <small>Secondary text</small></h1>"
          },
          {
            "type": "option",
            "title": "Heading 2",
            "content": "<h2>%START_CONTENT%Heading 2%END_CONTENT% <small>Secondary text</small></h2>"
          },
          {
            "type": "option",
            "title": "Heading 3",
            "content": "<h3>%START_CONTENT%Heading 3%END_CONTENT% <small>Secondary text</small></h3>"
          },
          {
            "type": "option",
            "title": "Heading 4",
            "content": "<h4>%START_CONTENT%Heading 4%END_CONTENT% <small>Secondary text</small></h4>"
          },
          {
            "type": "option",
            "title": "Heading 5",
            "content": "<h5>%START_CONTENT%Heading 5%END_CONTENT% <small>Secondary text</small></h5>"
          },
          {
            "type": "option",
            "title": "Heading 6",
            "content": "<h6>%START_CONTENT%Heading 6%END_CONTENT% <small>Secondary text</small></h6>"
          }
        ]
      },
      {
        "type": "category",
        "title": "Without small text",
        "description": "",
        "children": [
          {
            "type": "option",
            "title": "Heading 1",
            "content": "<h1>%START_CONTENT%Heading 1%END_CONTENT%</h1>"
          },
          {
            "type": "option",
            "title": "Heading 2",
            "content": "<h2>%START_CONTENT%Heading 2%END_CONTENT%</h2>"
          },
          {
            "type": "option",
            "title": "Heading 3",
            "content": "<h3>%START_CONTENT%Heading 3%END_CONTENT%</h3>"
          },
          {
            "type": "option",
            "title": "Heading 4",
            "content": "<h4>%START_CONTENT%Heading 4%END_CONTENT%</h4>"
          },
          {
            "type": "option",
            "title": "Heading 5",
            "content": "<h5>%START_CONTENT%Heading 5%END_CONTENT%</h5>"
          },
          {
            "type": "option",
            "title": "Heading 6",
            "content": "<h6>%START_CONTENT%Heading 6%END_CONTENT%</h6>"
          }
        ]
      }
    ]
  },
  {
    "type": "category",
    "title": "Block Quotes",
    "children": [
      {
        "type": "option",
        "title": "Plain",
        "description": "Quotes are a good way to add interest when introducing a new topic.",
        "content": "<blockquote>&ldquo;%START_CONTENT%Lorem ipsum dolor sit amet, consectetur adipisicing elit, sed do eiusmod tempor incididunt ut labore et dolore magna aliqua. Ut enim ad minim veniam, quis nostrud exercitation ullamco laboris nisi ut aliquip ex ea commodo consequat. Duis aute irure dolor in reprehenderit in voluptate velit esse cillum dolore eu fugiat nulla pariatur. Excepteur sint occaecat cupidatat non proident, sunt in culpa qui officia deserunt mollit anim id est laborum.%END_CONTENT%&rdquo;</blockquote>"
      },
      {
        "type": "option",
        "title": "Fancy",
        "description": "Choose either a ‘short’ or ‘long’ version of the Fancy quote style.",
        "content": "<div><blockquote class=\"mark\">%START_CONTENT%Lorem ipsum dolor sit amet, consectetur adipisicing elit, sed do eiusmod tempor incididunt ut labore et dolore magna aliqua. Ut enim ad minim veniam, quis nostrud exercitation ullamco laboris nisi ut aliquip ex ea commodo consequat. Duis aute irure dolor in reprehenderit in voluptate velit esse cillum dolore eu fugiat nulla pariatur. Excepteur sint occaecat cupidatat non proident, sunt in culpa qui officia deserunt mollit anim id est laborum.%END_CONTENT%</blockquote><cite>De Finibus, Bonorum et Malorum. Liber Primus. By Marcus Tullius Cicero, (106-45 BC).</cite></div>"
      }
    ]
  },
  {
    "type": "category",
    "title": "Activities",
    "description": "Choose the boxed icon that corresponds to the particular task or activity that you wish to insert into your page.",
    "children": [
      {
        "type": "option",
        "title": "Learning Outcomes",
        "content": "<div class=\"panel panel-learningOutcomes\"> <div class=\"panel-heading\"> <h3 class=\"panel-title\"> Learning Outcomes </h3> </div> <div class=\"panel-body\"> <div class=\"media\"> <div class=\"pull-left media-object\"> <div class=\"icon-learningOutcomes\"><p class=\"zero-height\"> </p></div> <p class=\"zero-height\"> </p> </div> <div class=\"media-body\"> %START_CONTENT%<p>Lorem ipsum dolor sit amet, consectetur adipisicing elit, sed do eiusmod tempor incididunt ut labore et dolore magna aliqua. Ut enim ad minim veniam, quis nostrud exercitation ullamco laboris nisi ut aliquip ex ea commodo consequat. Duis aute irure dolor in reprehenderit in voluptate velit esse cillum dolore eu fugiat nulla pariatur. Excepteur sint occaecat cupidatat non proident, sunt in culpa qui officia deserunt mollit anim id est laborum.</p>%END_CONTENT% </div> </div> </div> </div>"
      },
      {
        "type": "option",
        "title": "Reading",
        "content": "<div class=\"panel panel-reading\"> <div class=\"panel-heading\"> <h3 class=\"panel-title\"> Reading </h3> </div> <div class=\"panel-body\"> <div class=\"media\"> <div class=\"pull-left media-object\"> <div class=\"icon-reading\"><p class=\"zero-height\"> </p></div> <p class=\"zero-height\"> </p> </div> <div class=\"media-body\"> %START_CONTENT%<p>Lorem ipsum dolor sit amet, consectetur adipisicing elit, sed do eiusmod tempor incididunt ut labore et dolore magna aliqua. Ut enim ad minim veniam, quis nostrud exercitation ullamco laboris nisi ut aliquip ex ea commodo consequat. Duis aute irure dolor in reprehenderit in voluptate velit esse cillum dolore eu fugiat nulla pariatur. Excepteur sint occaecat cupidatat non proident, sunt in culpa qui officia deserunt mollit anim id est laborum.</p>%END_CONTENT% </div> </div> </div> </div>"
      },
      {
        "type": "option",
        "title": "Assessment Item",
        "content": "<div class=\"panel panel-assessmentItem\"><div class=\"panel-heading\"><h3 class=\"panel-title\">Assessment Item </h3></div><div class=\"panel-body\"><div class=\"media\"><div class=\"pull-left media-object\"><div class=\"icon-assessmentItem\"><p class=\"zero-height\"> </p></div><p class=\"zero-height\"> </p></div><div class=\"media-body\">%START_CONTENT%<p>Lorem ipsum dolor sit amet, consectetur adipisicing elit, sed do eiusmod tempor incididunt ut labore et dolore magna aliqua. Ut enim ad minim veniam, quis nostrud exercitation ullamco laboris nisi ut aliquip ex ea commodo consequat. Duis aute irure dolor in reprehenderit in voluptate velit esse cillum dolore eu fugiat nulla pariatur. Excepteur sint occaecat cupidatat non proident, sunt in culpa qui officia deserunt mollit anim id est laborum.</p>%END_CONTENT% </div></div></div></div>"
      },
      {
        "type": "option",
        "title": "Discussion",
        "content": "<div class=\"panel panel-discussion\"> <div class=\"panel-heading\"> <h3 class=\"panel-title\"> Discussion </h3> </div> <div class=\"panel-body\"> <div class=\"media\"> <div class=\"pull-left media-object\"> <div class=\"icon-discussion\"><p class=\"zero-height\"> </p></div> <p class=\"zero-height\"> </p> </div> <div class=\"media-body\"> %START_CONTENT%<p>Lorem ipsum dolor sit amet, consectetur adipisicing elit, sed do eiusmod tempor incididunt ut labore et dolore magna aliqua. Ut enim ad minim veniam, quis nostrud exercitation ullamco laboris nisi ut aliquip ex ea commodo consequat. Duis aute irure dolor in reprehenderit in voluptate velit esse cillum dolore eu fugiat nulla pariatur. Excepteur sint occaecat cupidatat non proident, sunt in culpa qui officia deserunt mollit anim id est laborum.</p>%END_CONTENT% </div> </div> </div> </div>"
      },
      {
        "type": "option",
        "title": "Reflection",
        "content": "<div class=\"panel panel-reflection\"> <div class=\"panel-heading\"> <h3 class=\"panel-title\"> Reflection </h3> </div> <div class=\"panel-body\"> <div class=\"media\"> <div class=\"pull-left media-object\"> <div class=\"icon-reflection\"><p class=\"zero-height\"> </p></div> <p class=\"zero-height\"> </p> </div> <div class=\"media-body\"> %START_CONTENT%<p>Lorem ipsum dolor sit amet, consectetur adipisicing elit, sed do eiusmod tempor incididunt ut labore et dolore magna aliqua. Ut enim ad minim veniam, quis nostrud exercitation ullamco laboris nisi ut aliquip ex ea commodo consequat. Duis aute irure dolor in reprehenderit in voluptate velit esse cillum dolore eu fugiat nulla pariatur. Excepteur sint occaecat cupidatat non proident, sunt in culpa qui officia deserunt mollit anim id est laborum.</p>%END_CONTENT% </div> </div> </div> </div>"
      },
      {
        "type": "option",
        "title": "Question",
        "content": "<div class=\"panel panel-question\"> <div class=\"panel-heading\"> <h3 class=\"panel-title\"> Question </h3> </div> <div class=\"panel-body\"> <div class=\"media\"> <div class=\"pull-left media-object\"> <div class=\"icon-question\"><p class=\"zero-height\"> </p></div> <p class=\"zero-height\"> </p> </div> <div class=\"media-body\"> %START_CONTENT%<p>Lorem ipsum dolor sit amet, consectetur adipisicing elit, sed do eiusmod tempor incididunt ut labore et dolore magna aliqua. Ut enim ad minim veniam, quis nostrud exercitation ullamco laboris nisi ut aliquip ex ea commodo consequat. Duis aute irure dolor in reprehenderit in voluptate velit esse cillum dolore eu fugiat nulla pariatur. Excepteur sint occaecat cupidatat non proident, sunt in culpa qui officia deserunt mollit anim id est laborum.</p>%END_CONTENT% </div> </div> </div> </div>"
      },
      {
        "type": "option",
        "title": "Lecture",
        "content": "<div class=\"panel panel-lecture\"> <div class=\"panel-heading\"> <h3 class=\"panel-title\"> Lecture </h3> </div> <div class=\"panel-body\"> <div class=\"media\"> <div class=\"pull-left media-object\"> <div class=\"icon-lecture\"><p class=\"zero-height\"> </p></div> <p class=\"zero-height\"> </p> </div> <div class=\"media-body\"> %START_CONTENT%<p>Lorem ipsum dolor sit amet, consectetur adipisicing elit, sed do eiusmod tempor incididunt ut labore et dolore magna aliqua. Ut enim ad minim veniam, quis nostrud exercitation ullamco laboris nisi ut aliquip ex ea commodo consequat. Duis aute irure dolor in reprehenderit in voluptate velit esse cillum dolore eu fugiat nulla pariatur. Excepteur sint occaecat cupidatat non proident, sunt in culpa qui officia deserunt mollit anim id est laborum.</p>%END_CONTENT% </div> </div> </div> </div>"
      },
      {
        "type": "option",
        "title": "Survey",
        "content": "<div class=\"panel panel-survey\"> <div class=\"panel-heading\"> <h3 class=\"panel-title\"> Survey </h3> </div> <div class=\"panel-body\"> <div class=\"media\"> <div class=\"pull-left media-object\"> <div class=\"icon-survey\"><p class=\"zero-height\"> </p></div> <p class=\"zero-height\"> </p> </div> <div class=\"media-body\"> %START_CONTENT%<p>Lorem ipsum dolor sit amet, consectetur adipisicing elit, sed do eiusmod tempor incididunt ut labore et dolore magna aliqua. Ut enim ad minim veniam, quis nostrud exercitation ullamco laboris nisi ut aliquip ex ea commodo consequat. Duis aute irure dolor in reprehenderit in voluptate velit esse cillum dolore eu fugiat nulla pariatur. Excepteur sint occaecat cupidatat non proident, sunt in culpa qui officia deserunt mollit anim id est laborum.</p>%END_CONTENT% </div> </div> </div> </div>"
      },
      {
        "type": "option",
        "title": "Activity",
        "content": "<div class=\"panel panel-activity\"> <div class=\"panel-heading\"> <h3 class=\"panel-title\"> Activity </h3> </div> <div class=\"panel-body\"> <div class=\"media\"> <div class=\"pull-left media-object\"> <div class=\"icon-activity\"><p class=\"zero-height\"> </p></div> <p class=\"zero-height\"> </p> </div> <div class=\"media-body\"> %START_CONTENT%<p>Lorem ipsum dolor sit amet, consectetur adipisicing elit, sed do eiusmod tempor incididunt ut labore et dolore magna aliqua. Ut enim ad minim veniam, quis nostrud exercitation ullamco laboris nisi ut aliquip ex ea commodo consequat. Duis aute irure dolor in reprehenderit in voluptate velit esse cillum dolore eu fugiat nulla pariatur. Excepteur sint occaecat cupidatat non proident, sunt in culpa qui officia deserunt mollit anim id est laborum.</p>%END_CONTENT% </div> </div> </div> </div>"
      },
      {
        "type": "option",
        "title": "Quiz",
        "content": "<div class=\"panel panel-quiz\"> <div class=\"panel-heading\"> <h3 class=\"panel-title\"> Quiz </h3> </div> <div class=\"panel-body\"> <div class=\"media\"> <div class=\"pull-left media-object\"> <div class=\"icon-quiz\"><p class=\"zero-height\"> </p></div> <p class=\"zero-height\"> </p> </div> <div class=\"media-body\"> %START_CONTENT%<p>Lorem ipsum dolor sit amet, consectetur adipisicing elit, sed do eiusmod tempor incididunt ut labore et dolore magna aliqua. Ut enim ad minim veniam, quis nostrud exercitation ullamco laboris nisi ut aliquip ex ea commodo consequat. Duis aute irure dolor in reprehenderit in voluptate velit esse cillum dolore eu fugiat nulla pariatur. Excepteur sint occaecat cupidatat non proident, sunt in culpa qui officia deserunt mollit anim id est laborum.</p>%END_CONTENT% </div> </div> </div> </div>"
      },
      {
        "type": "option",
        "title": "Web Resource",
        "content": "<div class=\"panel panel-web\"> <div class=\"panel-heading\"> <h3 class=\"panel-title\"> Web Resource </h3> </div> <div class=\"panel-body\"> <div class=\"media\"> <div class=\"pull-left media-object\"> <div class=\"icon-web\"><p class=\"zero-height\"> </p></div> <p class=\"zero-height\"> </p> </div> <div class=\"media-body\"> %START_CONTENT%<p>Lorem ipsum dolor sit amet, consectetur adipisicing elit, sed do eiusmod tempor incididunt ut labore et dolore magna aliqua. Ut enim ad minim veniam, quis nostrud exercitation ullamco laboris nisi ut aliquip ex ea commodo consequat. Duis aute irure dolor in reprehenderit in voluptate velit esse cillum dolore eu fugiat nulla pariatur. Excepteur sint occaecat cupidatat non proident, sunt in culpa qui officia deserunt mollit anim id est laborum.</p>%END_CONTENT% </div> </div> </div> </div>"
      },
      {
        "type": "option",
        "title": "Calendar",
        "content": "<div class=\"panel panel-calendar\"> <div class=\"panel-heading\"> <h3 class=\"panel-title\"> Calendar </h3> </div> <div class=\"panel-body\"> <div class=\"media\"> <div class=\"pull-left media-object\"> <div class=\"icon-calendar\"><p class=\"zero-height\"> </p></div> <p class=\"zero-height\"> </p> </div> <div class=\"media-body\"> %START_CONTENT%<p>Lorem ipsum dolor sit amet, consectetur adipisicing elit, sed do eiusmod tempor incididunt ut labore et dolore magna aliqua. Ut enim ad minim veniam, quis nostrud exercitation ullamco laboris nisi ut aliquip ex ea commodo consequat. Duis aute irure dolor in reprehenderit in voluptate velit esse cillum dolore eu fugiat nulla pariatur. Excepteur sint occaecat cupidatat non proident, sunt in culpa qui officia deserunt mollit anim id est laborum.</p>%END_CONTENT% </div> </div> </div> </div>"
      },
      {
        "type": "option",
        "title": "Experiment",
        "content": "<div class=\"panel panel-experiment\"> <div class=\"panel-heading\"> <h3 class=\"panel-title\"> Experiment </h3> </div> <div class=\"panel-body\"> <div class=\"media\"> <div class=\"pull-left media-object\"> <div class=\"icon-experiment\"><p class=\"zero-height\"> </p></div> <p class=\"zero-height\"> </p> </div> <div class=\"media-body\"> %START_CONTENT%<p>Lorem ipsum dolor sit amet, consectetur adipisicing elit, sed do eiusmod tempor incididunt ut labore et dolore magna aliqua. Ut enim ad minim veniam, quis nostrud exercitation ullamco laboris nisi ut aliquip ex ea commodo consequat. Duis aute irure dolor in reprehenderit in voluptate velit esse cillum dolore eu fugiat nulla pariatur. Excepteur sint occaecat cupidatat non proident, sunt in culpa qui officia deserunt mollit anim id est laborum.</p>%END_CONTENT% </div> </div> </div> </div>"
      },
      {
        "type": "option",
        "title": "Thought Tree",
        "content": "<div class=\"panel panel-thoughtTree\"> <div class=\"panel-heading\"> <h3 class=\"panel-title\"> Thought Tree </h3> </div> <div class=\"panel-body\"> <div class=\"media\"> <div class=\"pull-left media-object\"> <div class=\"icon-thoughtTree\"><p class=\"zero-height\"> </p></div> <p class=\"zero-height\"> </p> </div> <div class=\"media-body\"> %START_CONTENT%<p>Lorem ipsum dolor sit amet, consectetur adipisicing elit, sed do eiusmod tempor incididunt ut labore et dolore magna aliqua. Ut enim ad minim veniam, quis nostrud exercitation ullamco laboris nisi ut aliquip ex ea commodo consequat. Duis aute irure dolor in reprehenderit in voluptate velit esse cillum dolore eu fugiat nulla pariatur. Excepteur sint occaecat cupidatat non proident, sunt in culpa qui officia deserunt mollit anim id est laborum.</p>%END_CONTENT% </div> </div> </div> </div>"
      },
      {
        "type": "option",
        "title": "Case Study",
        "content": "<div class=\"panel panel-caseStudy\"> <div class=\"panel-heading\"> <h3 class=\"panel-title\"> Case Study </h3> </div> <div class=\"panel-body\"> <div class=\"media\"> <div class=\"pull-left media-object\"> <div class=\"icon-caseStudy\"><p class=\"zero-height\"> </p></div> <p class=\"zero-height\"> </p> </div> <div class=\"media-body\"> %START_CONTENT%<p>Lorem ipsum dolor sit amet, consectetur adipisicing elit, sed do eiusmod tempor incididunt ut labore et dolore magna aliqua. Ut enim ad minim veniam, quis nostrud exercitation ullamco laboris nisi ut aliquip ex ea commodo consequat. Duis aute irure dolor in reprehenderit in voluptate velit esse cillum dolore eu fugiat nulla pariatur. Excepteur sint occaecat cupidatat non proident, sunt in culpa qui officia deserunt mollit anim id est laborum.</p>%END_CONTENT% </div> </div> </div> </div>"
      },
      {
        "type": "option",
        "title": "Collaboration",
        "content": "<div class=\"panel panel-collaboration\"> <div class=\"panel-heading\"> <h3 class=\"panel-title\"> Collaboration </h3> </div> <div class=\"panel-body\"> <div class=\"media\"> <div class=\"pull-left media-object\"> <div class=\"icon-collaboration\"><p class=\"zero-height\"> </p></div> <p class=\"zero-height\"> </p> </div> <div class=\"media-body\"> %START_CONTENT%<p>Lorem ipsum dolor sit amet, consectetur adipisicing elit, sed do eiusmod tempor incididunt ut labore et dolore magna aliqua. Ut enim ad minim veniam, quis nostrud exercitation ullamco laboris nisi ut aliquip ex ea commodo consequat. Duis aute irure dolor in reprehenderit in voluptate velit esse cillum dolore eu fugiat nulla pariatur. Excepteur sint occaecat cupidatat non proident, sunt in culpa qui officia deserunt mollit anim id est laborum.</p>%END_CONTENT% </div> </div> </div> </div>"
      },
      {
        "type": "option",
        "title": "Portfolio",
        "content": "<div class=\"panel panel-portfolio\"> <div class=\"panel-heading\"> <h3 class=\"panel-title\"> Portfolio </h3> </div> <div class=\"panel-body\"> <div class=\"media\"> <div class=\"pull-left media-object\"> <div class=\"icon-portfolio\"><p class=\"zero-height\"> </p></div> <p class=\"zero-height\"> </p> </div> <div class=\"media-body\"> %START_CONTENT%<p>Lorem ipsum dolor sit amet, consectetur adipisicing elit, sed do eiusmod tempor incididunt ut labore et dolore magna aliqua. Ut enim ad minim veniam, quis nostrud exercitation ullamco laboris nisi ut aliquip ex ea commodo consequat. Duis aute irure dolor in reprehenderit in voluptate velit esse cillum dolore eu fugiat nulla pariatur. Excepteur sint occaecat cupidatat non proident, sunt in culpa qui officia deserunt mollit anim id est laborum.</p>%END_CONTENT% </div> </div> </div> </div>"
      },
      {
        "type": "option",
        "title": "PebblePad",
        "content": "<div class=\"panel panel-pebble\"> <div class=\"panel-heading\"> <h3 class=\"panel-title\"> PebblePad</h3> </div> <div class=\"panel-body\"> <div class=\"media\"> <div class=\"pull-left media-object\"> <div class=\"icon-pebble\"><p class=\"zero-height\"> </p></div> <p class=\"zero-height\"> </p> </div> <div class=\"media-body\"> %START_CONTENT%<p>Lorem ipsum dolor sit amet, consectetur adipisicing elit, sed do eiusmod tempor incididunt ut labore et dolore magna aliqua. Ut enim ad minim veniam, quis nostrud exercitation ullamco laboris nisi ut aliquip ex ea commodo consequat. Duis aute irure dolor in reprehenderit in voluptate velit esse cillum dolore eu fugiat nulla pariatur. Excepteur sint occaecat cupidatat non proident, sunt in culpa qui officia deserunt mollit anim id est laborum.</p>%END_CONTENT% </div> </div> </div> </div>"
      },
      {
        "type": "option",
        "title": "e-tivity",
        "content": "<div class=\"panel panel-etivity\"> <div class=\"panel-heading\"> <h3 class=\"panel-title\"> e-tivity </h3> </div> <div class=\"panel-body\"> <div class=\"media\"> <div class=\"pull-left media-object\"> <div class=\"icon-etivity\"><p class=\"zero-height\"> </p></div> <p class=\"zero-height\"> </p> </div> <div class=\"media-body\"> %START_CONTENT%<p>Lorem ipsum dolor sit amet, consectetur adipisicing elit, sed do eiusmod tempor incididunt ut labore et dolore magna aliqua. Ut enim ad minim veniam, quis nostrud exercitation ullamco laboris nisi ut aliquip ex ea commodo consequat. Duis aute irure dolor in reprehenderit in voluptate velit esse cillum dolore eu fugiat nulla pariatur. Excepteur sint occaecat cupidatat non proident, sunt in culpa qui officia deserunt mollit anim id est laborum.</p>%END_CONTENT% </div> </div> </div> </div>"
      },
      {
        "type": "option",
        "title": "Listen",
        "content": "<div class=\"panel panel-listen\"> <div class=\"panel-heading\"> <h3 class=\"panel-title\"> Listen </h3> </div> <div class=\"panel-body\"> <div class=\"media\"> <div class=\"pull-left media-object\"> <div class=\"icon-listen\"><p class=\"zero-height\"> </p></div> <p class=\"zero-height\"> </p> </div> <div class=\"media-body\"> %START_CONTENT%<p>Lorem ipsum dolor sit amet, consectetur adipisicing elit, sed do eiusmod tempor incididunt ut labore et dolore magna aliqua. Ut enim ad minim veniam, quis nostrud exercitation ullamco laboris nisi ut aliquip ex ea commodo consequat. Duis aute irure dolor in reprehenderit in voluptate velit esse cillum dolore eu fugiat nulla pariatur. Excepteur sint occaecat cupidatat non proident, sunt in culpa qui officia deserunt mollit anim id est laborum.</p>%END_CONTENT% </div> </div> </div> </div>"
      },
      {
        "type": "option",
        "title": "Overview",
        "content": "<div class=\"panel panel-overview\"> <div class=\"panel-heading\"> <h3 class=\"panel-title\"> Overview </h3> </div> <div class=\"panel-body\"> <div class=\"media\"> <div class=\"pull-left media-object\"> <div class=\"icon-overview\"><p class=\"zero-height\"> </p></div> <p class=\"zero-height\"> </p> </div> <div class=\"media-body\"> %START_CONTENT%<p>Lorem ipsum dolor sit amet, consectetur adipisicing elit, sed do eiusmod tempor incididunt ut labore et dolore magna aliqua. Ut enim ad minim veniam, quis nostrud exercitation ullamco laboris nisi ut aliquip ex ea commodo consequat. Duis aute irure dolor in reprehenderit in voluptate velit esse cillum dolore eu fugiat nulla pariatur. Excepteur sint occaecat cupidatat non proident, sunt in culpa qui officia deserunt mollit anim id est laborum.</p>%END_CONTENT% </div> </div> </div> </div>"
      },
      {
        "type": "option",
        "title": "Key Points",
        "content": "<div class=\"panel panel-key_points\"> <div class=\"panel-heading\"> <h3 class=\"panel-title\"> Key Points </h3> </div> <div class=\"panel-body\"> <div class=\"media\"> <div class=\"pull-left media-object\"> <div class=\"icon-key_points\"><p class=\"zero-height\"> </p></div> <p class=\"zero-height\"> </p> </div> <div class=\"media-body\"> %START_CONTENT%<p>Lorem ipsum dolor sit amet, consectetur adipisicing elit, sed do eiusmod tempor incididunt ut labore et dolore magna aliqua. Ut enim ad minim veniam, quis nostrud exercitation ullamco laboris nisi ut aliquip ex ea commodo consequat. Duis aute irure dolor in reprehenderit in voluptate velit esse cillum dolore eu fugiat nulla pariatur. Excepteur sint occaecat cupidatat non proident, sunt in culpa qui officia deserunt mollit anim id est laborum.</p>%END_CONTENT% </div> </div> </div> </div>"
      },
      {
        "type": "option",
        "title": "Cultural Perspectives",
        "content": "<div class=\"panel panel-atsi\"> <div class=\"panel-heading\"> <h3 class=\"panel-title\">Cultural Perspectives</h3> </div> <div class=\"panel-body\"> <div class=\"media\"> <div class=\"pull-left media-object\"> <div class=\"icon-atsi\"><p class=\"zero-height\"> </p></div> <p class=\"zero-height\"> </p> </div> <div class=\"media-body\"> %START_CONTENT%<p>Lorem ipsum dolor sit amet, consectetur adipisicing elit, sed do eiusmod tempor incididunt ut labore et dolore magna aliqua. Ut enim ad minim veniam, quis nostrud exercitation ullamco laboris nisi ut aliquip ex ea commodo consequat. Duis aute irure dolor in reprehenderit in voluptate velit esse cillum dolore eu fugiat nulla pariatur. Excepteur sint occaecat cupidatat non proident, sunt in culpa qui officia deserunt mollit anim id est laborum.</p>%END_CONTENT% </div> </div> </div> </div>"
      },
      {
        "type": "option",
        "title": "Concept",
        "content": "<div class=\"panel panel-concept\"> <div class=\"panel-heading\"> <h3 class=\"panel-title\">Concept</h3> </div> <div class=\"panel-body\"> <div class=\"media\"> <div class=\"pull-left media-object\"> <div class=\"icon-concept\"><p class=\"zero-height\"> </p></div> <p class=\"zero-height\"> </p> </div> <div class=\"media-body\"> %START_CONTENT%<p>Lorem ipsum dolor sit amet, consectetur adipisicing elit, sed do eiusmod tempor incididunt ut labore et dolore magna aliqua. Ut enim ad minim veniam, quis nostrud exercitation ullamco laboris nisi ut aliquip ex ea commodo consequat. Duis aute irure dolor in reprehenderit in voluptate velit esse cillum dolore eu fugiat nulla pariatur. Excepteur sint occaecat cupidatat non proident, sunt in culpa qui officia deserunt mollit anim id est laborum.</p>%END_CONTENT% </div> </div> </div> </div>"
      },
      {
        "type": "option",
        "title": "Checklist",
        "content": "<div class=\"panel panel-checklist\"> <div class=\"panel-heading\"> <h3 class=\"panel-title\">Checklist</h3> </div> <div class=\"panel-body\"> <div class=\"media\"> <div class=\"pull-left media-object\"> <div class=\"icon-checklist\"><p class=\"zero-height\"> </p></div> <p class=\"zero-height\"> </p> </div> <div class=\"media-body\"> %START_CONTENT%<p>Lorem ipsum dolor sit amet, consectetur adipisicing elit, sed do eiusmod tempor incididunt ut labore et dolore magna aliqua. Ut enim ad minim veniam, quis nostrud exercitation ullamco laboris nisi ut aliquip ex ea commodo consequat. Duis aute irure dolor in reprehenderit in voluptate velit esse cillum dolore eu fugiat nulla pariatur. Excepteur sint occaecat cupidatat non proident, sunt in culpa qui officia deserunt mollit anim id est laborum.</p>%END_CONTENT% </div> </div> </div> </div>"
      }
    ]
  },
  {
    "type": "category",
    "title": "Attention",
    "description": "Choose the alert message that you wish to insert. You may wish to use green to highlight a ‘positive’ alert message and red to draw attention to a ‘negative’ alert message. Also note that you can change the text to remove the word ‘attention’ if you consider it inappropriate.",
    "children": [
      {
        "type": "option",
        "title": "Positive",
        "content": "<div class=\"callout callout-success\"> <div> <h4> Attention Positive </h4> <div class=\"media\"> <div class=\"pull-left media-object\"> <div class=\"icon-attention_positive\"><p class=\"zero-height\"> </p></div> <p class=\"zero-height\"> </p> </div> <div class=\"media-body\">%START_CONTENT%<p>Lorem ipsum dolor sit amet, consectetur adipisicing elit, sed do eiusmod tempor incididunt ut labore et dolore magna aliqua. Ut enim ad minim veniam, quis nostrud exercitation ullamco laboris nisi ut aliquip ex ea commodo consequat. Duis aute irure dolor in reprehenderit in voluptate velit esse cillum dolore eu fugiat nulla pariatur. Excepteur sint occaecat cupidatat non proident, sunt in culpa qui officia deserunt mollit anim id est laborum.</p>%END_CONTENT%</div> </div> </div> </div>"
      },
      {
        "type": "option",
        "title": "Negative",
        "content": "<div class=\"callout callout-danger\"> <div> <h4> Attention Negative </h4> <div class=\"media\"> <div class=\"pull-left media-object\"> <div class=\"icon-attention_negative\"><p class=\"zero-height\"> </p></div> <p class=\"zero-height\"> </p> </div> <div class=\"media-body\">%START_CONTENT%<p>Lorem ipsum dolor sit amet, consectetur adipisicing elit, sed do eiusmod tempor incididunt ut labore et dolore magna aliqua. Ut enim ad minim veniam, quis nostrud exercitation ullamco laboris nisi ut aliquip ex ea commodo consequat. Duis aute irure dolor in reprehenderit in voluptate velit esse cillum dolore eu fugiat nulla pariatur. Excepteur sint occaecat cupidatat non proident, sunt in culpa qui officia deserunt mollit anim id est laborum.</p>%END_CONTENT%</div> </div> </div> </div>"
      }
    ]
  },
  {
    "type": "category",
    "title": "Panels",
    "children": [
      {
        "type": "category",
        "title": "Regular",
        "description": "Select the desired colour of the panel that you wish to insert.",
        "children": [
          {
            "type": "option",
            "title": "Blue/White",
            "content": "<div class=\"panel panel-info\"><div class=\"panel-heading\"><h3 class=\"panel-title\">Panel title </h3></div><div class=\"panel-body\">%START_CONTENT%<p>Lorem ipsum dolor sit amet, consectetur adipisicing elit, sed do eiusmod tempor incididunt ut labore et dolore magna aliqua. Ut enim ad minim veniam, quis nostrud exercitation ullamco laboris nisi ut aliquip ex ea commodo consequat. Duis aute irure dolor in reprehenderit in voluptate velit esse cillum dolore eu fugiat nulla pariatur. Excepteur sint occaecat cupidatat non proident, sunt in culpa qui officia deserunt mollit anim id est laborum.</p>%END_CONTENT%</div></div>"
          },
          {
            "type": "option",
            "title": "Blue",
            "content": "<div class=\"panel panel-info\"><div class=\"panel-heading\"><h3 class=\"panel-title\">Panel title </h3></div><div class=\"panel-body bg-info\">%START_CONTENT%<p>Lorem ipsum dolor sit amet, consectetur adipisicing elit, sed do eiusmod tempor incididunt ut labore et dolore magna aliqua. Ut enim ad minim veniam, quis nostrud exercitation ullamco laboris nisi ut aliquip ex ea commodo consequat. Duis aute irure dolor in reprehenderit in voluptate velit esse cillum dolore eu fugiat nulla pariatur. Excepteur sint occaecat cupidatat non proident, sunt in culpa qui officia deserunt mollit anim id est laborum.</p>%END_CONTENT%</div></div>"
          },
          {
            "type": "option",
            "title": "Yellow/White",
            "content": "<div class=\"panel panel-warning\"><div class=\"panel-heading\"><h3 class=\"panel-title\">Panel title </h3></div><div class=\"panel-body\">%START_CONTENT%<p>Lorem ipsum dolor sit amet, consectetur adipisicing elit, sed do eiusmod tempor incididunt ut labore et dolore magna aliqua. Ut enim ad minim veniam, quis nostrud exercitation ullamco laboris nisi ut aliquip ex ea commodo consequat. Duis aute irure dolor in reprehenderit in voluptate velit esse cillum dolore eu fugiat nulla pariatur. Excepteur sint occaecat cupidatat non proident, sunt in culpa qui officia deserunt mollit anim id est laborum.</p>%END_CONTENT%</div></div>"
          },
          {
            "type": "option",
            "title": "Yellow",
            "content": "<div class=\"panel panel-warning\"><div class=\"panel-heading\"><h3 class=\"panel-title\">Panel title </h3></div><div class=\"panel-body bg-warning\">%START_CONTENT%<p>Lorem ipsum dolor sit amet, consectetur adipisicing elit, sed do eiusmod tempor incididunt ut labore et dolore magna aliqua. Ut enim ad minim veniam, quis nostrud exercitation ullamco laboris nisi ut aliquip ex ea commodo consequat. Duis aute irure dolor in reprehenderit in voluptate velit esse cillum dolore eu fugiat nulla pariatur. Excepteur sint occaecat cupidatat non proident, sunt in culpa qui officia deserunt mollit anim id est laborum.</p>%END_CONTENT%</div></div>"
          }
        ]
      },
      {
        "type": "category",
        "title": "Expandable",
        "description": "Expandable panels are a good way to present feedback or additional information/hints. When the coloured bar at the top of the panel is pressed, the content will either expand or shrink.",
        "children": [
          {
            "type": "option",
            "title": "Blue/White",
            "content": "<div class=\"panel panel-info\"><div class=\"panel-heading btn collapsed\" data-toggle=\"collapse\" data-target=\"#{{%SUID%}}\"><h3 class=\"panel-title collapse\">Panel title (collapsed) <span class=\"glyphicon glyphicon-chevron-down pull-right\"> </span></h3><h3 class=\"panel-title\">Panel title (expanded) <span class=\"glyphicon glyphicon-chevron-up pull-right\"> </span></h3></div><div id=\"{{%SUID%}}\" class=\"panel-collapse collapse\" style=\"height: 0px;\"><div class=\"panel-body\">%START_CONTENT%<p>Lorem ipsum dolor sit amet, consectetur adipisicing elit, sed do eiusmod tempor incididunt ut labore et dolore magna aliqua. Ut enim ad minim veniam, quis nostrud exercitation ullamco laboris nisi ut aliquip ex ea commodo consequat. Duis aute irure dolor in reprehenderit in voluptate velit esse cillum dolore eu fugiat nulla pariatur. Excepteur sint occaecat cupidatat non proident, sunt in culpa qui officia deserunt mollit anim id est laborum.</p>%END_CONTENT%</div></div></div>"
          },
          {
            "type": "option",
            "title": "Blue",
            "content": "<div class=\"panel panel-info\"><div class=\"panel-heading btn collapsed\" data-toggle=\"collapse\" data-target=\"#{{%SUID%}}\"><h3 class=\"panel-title collapse\">Panel title (collapsed) <span class=\"glyphicon glyphicon-chevron-down pull-right\"> </span></h3><h3 class=\"panel-title\">Panel title (expanded) <span class=\"glyphicon glyphicon-chevron-up pull-right\"> </span></h3></div><div id=\"{{%SUID%}}\" class=\"panel-collapse collapse\" style=\"height: 0px;\"><div class=\"panel-body bg-info\">%START_CONTENT%<p>Lorem ipsum dolor sit amet, consectetur adipisicing elit, sed do eiusmod tempor incididunt ut labore et dolore magna aliqua. Ut enim ad minim veniam, quis nostrud exercitation ullamco laboris nisi ut aliquip ex ea commodo consequat. Duis aute irure dolor in reprehenderit in voluptate velit esse cillum dolore eu fugiat nulla pariatur. Excepteur sint occaecat cupidatat non proident, sunt in culpa qui officia deserunt mollit anim id est laborum.</p>%END_CONTENT%</div></div></div>"
          },
          {
            "type": "option",
            "title": "Yellow/White",
            "content": "<div class=\"panel panel-warning\"><div class=\"panel-heading btn collapsed\" data-toggle=\"collapse\" data-target=\"#{{%SUID%}}\"><h3 class=\"panel-title collapse\">Panel title (collapsed) <span class=\"glyphicon glyphicon-chevron-down pull-right\"> </span></h3><h3 class=\"panel-title\">Panel title (expanded) <span class=\"glyphicon glyphicon-chevron-up pull-right\"> </span></h3></div><div id=\"{{%SUID%}}\" class=\"panel-collapse collapse\" style=\"height: 0px;\"><div class=\"panel-body\">%START_CONTENT%<p>Lorem ipsum dolor sit amet, consectetur adipisicing elit, sed do eiusmod tempor incididunt ut labore et dolore magna aliqua. Ut enim ad minim veniam, quis nostrud exercitation ullamco laboris nisi ut aliquip ex ea commodo consequat. Duis aute irure dolor in reprehenderit in voluptate velit esse cillum dolore eu fugiat nulla pariatur. Excepteur sint occaecat cupidatat non proident, sunt in culpa qui officia deserunt mollit anim id est laborum.</p>%END_CONTENT%</div></div></div>"
          },
          {
            "type": "option",
            "title": "Yellow",
            "content": "<div class=\"panel panel-warning\"><div class=\"panel-heading btn collapsed\" data-toggle=\"collapse\" data-target=\"#{{%SUID%}}\"><h3 class=\"panel-title collapse\">Panel title (collapsed) <span class=\"glyphicon glyphicon-chevron-down pull-right\"> </span></h3><h3 class=\"panel-title\">Panel title (expanded) <span class=\"glyphicon glyphicon-chevron-up pull-right\"> </span></h3></div><div id=\"{{%SUID%}}\" class=\"panel-collapse collapse\" style=\"height: 0px;\"><div class=\"panel-body bg-warning\">%START_CONTENT%<p>Lorem ipsum dolor sit amet, consectetur adipisicing elit, sed do eiusmod tempor incididunt ut labore et dolore magna aliqua. Ut enim ad minim veniam, quis nostrud exercitation ullamco laboris nisi ut aliquip ex ea commodo consequat. Duis aute irure dolor in reprehenderit in voluptate velit esse cillum dolore eu fugiat nulla pariatur. Excepteur sint occaecat cupidatat non proident, sunt in culpa qui officia deserunt mollit anim id est laborum.</p>%END_CONTENT%</div></div></div>"
          }
        ]
      }
    ]
  },
  {
    "type": "category",
    "title": "Images",
    "description": "Select either the ‘left’, ‘centre’ or ‘right’ option below for the desired position of the image relative to the text.",
    "children": [
      {
        "type": "option",
        "title": "Left",
        "content": "<div class=\"img-left\"><div class=\"thumbnail\"><div><img src=\"imageplaceholder\" width=\"400px\"></div><p></p></div><p class=\"caption\">putCaptionHere </p></div><p></p><p>In MyLO: replace the image with your own image in MyLO using the image tool.</p></p>%START_CONTENT%This text will wrap around the image: Lorem ipsum dolor sit amet, consectetur adipisicing elit, sed do eiusmod tempor incididunt ut labore et dolore magna aliqua. Ut enim ad minim veniam, quis nostrud exercitation ullamco laboris nisi ut aliquip ex ea commodo consequat. Duis aute irure dolor in reprehenderit in voluptate velit esse cillum dolore eu fugiat nulla pariatur. Excepteur sint occaecat cupidatat non proident, sunt in culpa qui officia deserunt mollit anim id est laborum. %END_CONTENT%</p><p></p><div class=\"dit-spacer dit-spacer-invisible text-center\">[Wrapping Break (invisible)]</div><p></p><p></p>"
      },
      {
        "type": "option",
        "title": "Centre",
        "content": "<div class=\"img-center\"><div class=\"thumbnail img-thumbnail\"><div><img src=\"imageplaceholder\" width=\"400px\"></div><p></p></div><p class=\"caption\">putCaptionHere </p></div><p></p><div class=\"dit-spacer dit-spacer-invisible text-center\">[Wrapping Break (invisible)]</div><p></p><p>In MyLO: replace the image with your own image in MyLO using the image tool.</p></p>%START_CONTENT%This text will wrap around the image: Lorem ipsum dolor sit amet, consectetur adipisicing elit, sed do eiusmod tempor incididunt ut labore et dolore magna aliqua. Ut enim ad minim veniam, quis nostrud exercitation ullamco laboris nisi ut aliquip ex ea commodo consequat. Duis aute irure dolor in reprehenderit in voluptate velit esse cillum dolore eu fugiat nulla pariatur. Excepteur sint occaecat cupidatat non proident, sunt in culpa qui officia deserunt mollit anim id est laborum. %END_CONTENT%</p><p></p><p></p>"
      },
      {
        "type": "option",
        "title": "Right",
        "content": "<div class=\"img-right\"><div class=\"thumbnail\"><div><img src=\"imageplaceholder\" width=\"400px\"></div><p></p></div><p class=\"caption\">putCaptionHere </p></div><p></p><p>In MyLO: replace the image with your own image in MyLO using the image tool.</p></p>%START_CONTENT%This text will wrap around the image: Lorem ipsum dolor sit amet, consectetur adipisicing elit, sed do eiusmod tempor incididunt ut labore et dolore magna aliqua. Ut enim ad minim veniam, quis nostrud exercitation ullamco laboris nisi ut aliquip ex ea commodo consequat. Duis aute irure dolor in reprehenderit in voluptate velit esse cillum dolore eu fugiat nulla pariatur. Excepteur sint occaecat cupidatat non proident, sunt in culpa qui officia deserunt mollit anim id est laborum. %END_CONTENT%</p><p></p><div class=\"dit-spacer dit-spacer-invisible text-center\">[Wrapping Break (invisible)]</div><p></p><p></p>"
      }
    ]
  },
  {
    "type": "category",
    "title": "Tables",
    "description": "Select the table style that you wish to use. When you have inserted the table into your page, you can change all features of the table, including numbers of rows and columns, using the MyLO table editor tool.",
    "children": [
      {
        "type": "option",
        "title": "Plain",
        "content": "<div class=\"table-responsive\"><table class=\"table\"><thead><tr><th>#</th><th>First Name</th><th>Last Name</th><th>Username</th></tr></thead><tbody><tr><td>1</td><td>Mark</td><td>Otto</td><td>@mdo</td></tr><tr><td>2</td><td>Jacob</td><td>Thornton</td><td>@fat</td></tr><tr><td>3</td><td>Larry</td><td>the Bird</td><td>@twitter</td></tr></tbody></table></div>"
      },
      {
        "type": "option",
        "title": "Striped",
        "content": "<div class=\"table-responsive\"><table class=\"table table-striped\"><thead><tr><th>#</th><th>First Name</th><th>Last Name</th><th>Username</th></tr></thead><tbody><tr><td>1</td><td>Mark</td><td>Otto</td><td>@mdo</td></tr><tr><td>2</td><td>Jacob</td><td>Thornton</td><td>@fat</td></tr><tr><td>3</td><td>Larry</td><td>the Bird</td><td>@twitter</td></tr></tbody></table></div>"
      },
      {
        "type": "option",
        "title": "Bordered",
        "content": "<div class=\"table-responsive\"><table class=\"table table-bordered\"><thead><tr><th>#</th><th>First Name</th><th>Last Name</th><th>Username</th></tr></thead><tbody><tr><td>1</td><td>Mark</td><td>Otto</td><td>@mdo</td></tr><tr><td>2</td><td>Jacob</td><td>Thornton</td><td>@fat</td></tr><tr><td>3</td><td>Larry</td><td>the Bird</td><td>@twitter</td></tr></tbody></table></div>"
      },
      {
        "type": "option",
        "title": "Highlight Rows",
        "content": "<div class=\"table-responsive\"><table class=\"table table-hover\"><thead><tr><th>#</th><th>First Name</th><th>Last Name</th><th>Username</th></tr></thead><tbody><tr><td>1</td><td>Mark</td><td>Otto</td><td>@mdo</td></tr><tr><td>2</td><td>Jacob</td><td>Thornton</td><td>@fat</td></tr><tr><td>3</td><td>Larry</td><td>the Bird</td><td>@twitter</td></tr></tbody></table></div>"
      },
      {
        "type": "option",
        "title": "Condensed",
        "content": "<div class=\"table-responsive\"><table class=\"table table-condensed\"><thead><tr><th>#</th><th>First Name</th><th>Last Name</th><th>Username</th></tr></thead><tbody><tr><td>1</td><td>Mark</td><td>Otto</td><td>@mdo</td></tr><tr><td>2</td><td>Jacob</td><td>Thornton</td><td>@fat</td></tr><tr><td>3</td><td>Larry</td><td>the Bird</td><td>@twitter</td></tr></tbody></table></div>"
      }
    ]
  },
  {
    "type": "category",
    "title": "Videos",
    "description": "Insert a responsive video clip into your page.",
    "children": [
      {
        "type": "option",
        "title": "YouTube",
        "content": "<div class=\"video-youtube\"><!-- 16:9 aspect ratio --><div class=\"embed-responsive embed-responsive-16by9\"><iframe class=\"embed-responsive-item\" src=\"{{%REF_URL%}}\"allowfullscreen=\"\"></iframe></div><p class=\"caption\"><a href=\"{{%REF_URL%}}\" target=\"_blank\">Visit in new window</a> </p></div>",
        "modifications": {
          "REF_URL": {
            "expect": "youtubeId",
            "info": "Please provide a YouTube video URL.",
            "preview": "https://www.youtube.com/watch?v=dQw4w9WgXcQ"
          }
        }
      },
      {
        "type": "option",
        "title": "Other Video",
        "content": "<div class=\"video-youtube\"><!-- 16:9 aspect ratio --><div class=\"embed-responsive embed-responsive-16by9\"><iframe class=\"embed-responsive-item\" src=\"{{%REF_URL%}}\"allowfullscreen=\"\"></iframe></div><p class=\"caption\"><a href=\"{{%REF_URL%}}\" target=\"_blank\">Visit in new window</a> </p></div>",
        "modifications": {
          "REF_URL": {
            "expect": "string",
            "info": "Please provide a url",
            "preview": ""
          }
        }
      },
      {
        "type": "option",
        "title": "Embed code",
        "content": "<div class=\"video-youtube\"><!-- 16:9 aspect ratio --><div class=\"embed-responsive embed-responsive-16by9\">{{%EMBED_CODE%}}</div><p class=\"caption\">putCaptionHere </p></div>",
        "modifications": {
          "EMBED_CODE": {
            "expect": "string",
            "info": "Please paste the embed code."
          }
        }
      }
    ]
  },
  {
    "type": "category",
    "title": "Interactive",
    "children": [
      {
        "type": "category",
        "title": "Sorting",
        "description": "The sorting tool allows you to create an interactive sequencing game. You will be able to add more object choices (using the MyLO table tool) and change the text when it is pasted into your unit page. This tool may be used to ask students to, for example, rank objects or variables from highest to lowest, biggest to smallest or most to least likely.\n\nThe *Completion* Feedback option allows you to customise a message that appears when the correct solution is reached.\n\nThe *Continuous Feedback* option will indicate to students when each component of the sequence is in the correct place by changing the item highlight from red (incorrect) to green (correct).",
        "children": [
          {
            "type": "option",
            "title": "No Feedback",
            "content": "<div class=\"panel panel-default\"> <div class=\"panel-heading\"><h3 class=\"panel-title\">Sorting</h3></div> <div class=\"panel-body\"> <div class=\"table-responsive\"> <table class=\"table table-hover\"> <tbody class=\"dit-sortable\"> <tr> <td>Object 1</td> </tr> <tr> <td>Object 2</td> </tr> <tr> <td>Object 3</td> </tr> </tbody> </table> </div> </div> </div>"
          },
          {
            "type": "option",
            "title": "Completion Feedback",
            "content": "<div class=\"dit-sorting-with-feedback panel panel-default\"> <div class=\"panel-heading\"><h3 class=\"panel-title\">Sorting</h3></div> <div class=\"panel-body row\">  <div class=\"col-xs-6\"> <div class=\"dit-sorting-success bg-success\"> Success message here </div> <div class=\"dit-sorting-default\">Instructions message here</div> </div> <div class=\"col-xs-6\"> <div class=\"table-responsive\"> <table class=\"table table-hover\"> <tbody class=\"dit-sortable-with-feedback\"> <tr> <td>Object 1</td> </tr> <tr> <td>Object 2</td> </tr> <tr> <td>Object 3</td> </tr> </tbody> </table> </div> </div></div> </div>"
          },
          {
            "type": "option",
            "title": "Continuous Feedback",
            "content": "<div class=\"dit-sorting-with-feedback dit-sorting-continuous-feedback panel panel-default\"> <div class=\"panel-heading\"><h3 class=\"panel-title\">Sorting</h3></div> <div class=\"panel-body row\">  <div class=\"col-xs-6\"> <div class=\"dit-sorting-success bg-success\"> Success message here </div> <div class=\"dit-sorting-default\">Instructions message here</div> </div> <div class=\"col-xs-6\"> <div class=\"table-responsive\"> <table class=\"table table-hover\"> <tbody class=\"dit-sortable-with-feedback\"> <tr> <td>Object 1</td> </tr> <tr> <td>Object 2</td> </tr> <tr> <td>Object 3</td> </tr> </tbody> </table> </div> </div></div> </div>"
          }
        ]
      },
      {
        "type": "category",
        "title": "Grouping",
        "description": "The grouping tool allows you to create a game that requires students to divide a single list of objects into two or three defined groups. Students will drag their selection into one of two group boxes. If they are correct, their selection will highlight green; if incorrect it will highlight red. They can continue until all selections are correct.\n\nWhen you have copied and pasted the tool into your unit page, insert the titles for your group boxes and list the correct items within each box. You can add extra options by inserting rows (using the MyLO table tool) but DO NOT insert columns, they WILL NOT display correctly.\n\nWhen the student views the game, all of the options that you have placed within the boxes will be displayed as a randomly ordered list for students to choose from.",
        "children": [
          {
            "type": "option",
            "title": "2 groups - Plain",
            "content": "<div class=\"dit-drag-drop\"> <div class=\"panel panel-default\"> <div class=\"panel-heading\"> <h3 class=\"panel-title\">Grouping</h3> </div> <div class=\"panel-body\"> <ul class=\"list-group group-all\"><li class=\"list-group-item list-group-item-danger\"><strong>Do not modify the contents of this group</strong>. All items must be placed in category panels below.</li></ul> </div> </div> <div class=\"row\"> <div class=\"col-md-6\"> <div class=\"panel panel-default\"> <div class=\"panel-heading\"> <h3 class=\"panel-title\">Plants</h3> </div> <div class=\"panel-body\"> <div class=\"table-responsive\"> <table class=\"table table-hover\"> <tbody class=\"group-1\"> <tr> <td>Lilac</td> </tr> <tr> <td>Rhododendron</td> </tr> <tr> <td>Daisy</td> </tr> </tbody> </table> </div> </div> </div> </div> <div class=\"col-md-6\"> <div class=\"panel panel-default\"> <div class=\"panel-heading\"> <h3 class=\"panel-title\">Animals</h3> </div> <div class=\"panel-body\"> <div class=\"table-responsive\"> <table class=\"table table-hover\"> <tbody class=\"group-2\"> <tr> <td>Aardvark</td> </tr> <tr> <td>Whale Shark</td> </tr> <tr> <td>Cat</td> </tr> </tbody> </table> </div> </div> </div> </div> </div></div>"
          },
          {
            "type": "option",
            "title": "2 groups - With Instructions",
            "content": "<div class=\"dit-drag-drop\"> <div class=\"panel panel-default\"> <div class=\"panel-heading\"><h3 class=\"panel-title\">Grouping</h3></div> <div class=\"panel-body\"> %START_CONTENT%<p>[Insert instructions here]</p>%END_CONTENT%<ul class=\"list-group group-all\"> <li class=\"list-group-item list-group-item-danger\"><strong>Do not modify the contents of this group</strong>. All items must be placed in category panels below. </li> </ul> </div> </div> <div class=\"row\"> <div class=\"col-md-6\"> <div class=\"panel panel-default\"> <div class=\"panel-heading\"><h3 class=\"panel-title\">Plants</h3></div> <div class=\"panel-body\"> <p>Insert instructions here</p> <div class=\"table-responsive\"> <table class=\"table table-hover\"> <tbody class=\"group-1\"> <tr> <td>Lilac</td> </tr> <tr> <td>Rhododendron</td> </tr> <tr> <td>Daisy</td> </tr> </tbody> </table> </div> </div> </div> </div> <div class=\"col-md-6\"> <div class=\"panel panel-default\"> <div class=\"panel-heading\"><h3 class=\"panel-title\">Animals</h3></div> <div class=\"panel-body\"> <div class=\"table-responsive\"> <table class=\"table table-hover\"> <tbody class=\"group-2\"> <tr> <td>Aardvark</td> </tr> <tr> <td>Whale Shark</td> </tr> <tr> <td>Cat</td> </tr> </tbody> </table> </div> </div> </div> </div> </div></div>"
          },
          {
            "type": "option",
            "title": "3 groups - Plain",
            "content": "<div class=\"dit-drag-drop\"> <div class=\"panel panel-default\"> <div class=\"panel-heading\"> <h3 class=\"panel-title\">Grouping</h3> </div> <div class=\"panel-body\"> <ul class=\"list-group group-all\"><li class=\"list-group-item list-group-item-danger\"><strong>Do not modify the contents of this group</strong>. All items must be placed in category panels below.</li></ul> </div> </div> <div class=\"row\"> <div class=\"col-sm-4\"> <div class=\"panel panel-default\"> <div class=\"panel-heading\"> <h3 class=\"panel-title\">Plants</h3> </div> <div class=\"panel-body\"> <div class=\"table-responsive\"> <table class=\"table table-hover\"> <tbody class=\"group-1\"> <tr> <td>Lilac</td> </tr> <tr> <td>Rhododendron</td> </tr> <tr> <td>Daisy</td> </tr> </tbody> </table> </div> </div> </div> </div> <div class=\"col-sm-4\"> <div class=\"panel panel-default\"> <div class=\"panel-heading\"> <h3 class=\"panel-title\">Animals</h3> </div> <div class=\"panel-body\"> <div class=\"table-responsive\"> <table class=\"table table-hover\"> <tbody class=\"group-2\"> <tr> <td>Aardvark</td> </tr> <tr> <td>Whale Shark</td> </tr> <tr> <td>Cat</td> </tr> </tbody> </table> </div> </div> </div> </div> <div class=\"col-sm-4\"> <div class=\"panel panel-default\"> <div class=\"panel-heading\"> <h3 class=\"panel-title\">Other</h3> </div> <div class=\"panel-body\"> <div class=\"table-responsive\"> <table class=\"table table-hover\"> <tbody class=\"group-3\"> <tr> <td>Mushroom</td> </tr> <tr> <td>Cyanobacteria</td> </tr> <tr> <td>Archebacteria</td> </tr> </tbody> </table> </div> </div> </div> </div> </div></div>"
          },
          {
            "type": "option",
            "title": "3 groups - With Instructions",
            "content": "<div class=\"dit-drag-drop\"> <div class=\"panel panel-default\"> <div class=\"panel-heading\"><h3 class=\"panel-title\">Grouping</h3></div> <div class=\"panel-body\">%START_CONTENT% <p>[Insert instructions here]</p>%END_CONTENT%<ul class=\"list-group group-all\"><li class=\"list-group-item list-group-item-danger\"><strong>Do not modify the contents of this group</strong>. All items must be placed in category panels below.</li></ul> </div> </div> <div class=\"row\"> <div class=\"col-sm-4\"> <div class=\"panel panel-default\"> <div class=\"panel-heading\"> <h3 class=\"panel-title\">Plants</h3> </div> <div class=\"panel-body\"> <div class=\"table-responsive\"> <table class=\"table table-hover\"> <tbody class=\"group-1\"> <tr> <td>Lilac</td> </tr> <tr> <td>Rhododendron</td> </tr> <tr> <td>Daisy</td> </tr> </tbody> </table> </div> </div> </div> </div> <div class=\"col-sm-4\"> <div class=\"panel panel-default\"> <div class=\"panel-heading\"> <h3 class=\"panel-title\">Animals</h3> </div> <div class=\"panel-body\"> <div class=\"table-responsive\"> <table class=\"table table-hover\"> <tbody class=\"group-2\"> <tr> <td>Aardvark</td> </tr> <tr> <td>Whale Shark</td> </tr> <tr> <td>Cat</td> </tr> </tbody> </table> </div> </div> </div> </div> <div class=\"col-sm-4\"> <div class=\"panel panel-default\"> <div class=\"panel-heading\"> <h3 class=\"panel-title\">Other</h3> </div> <div class=\"panel-body\"> <div class=\"table-responsive\"> <table class=\"table table-hover\"> <tbody class=\"group-3\"> <tr> <td>Mushroom</td> </tr> <tr> <td>Cyanobacteria</td> </tr> <tr> <td>Archebacteria</td> </tr> </tbody> </table> </div> </div> </div> </div> </div></div>"
          }
        ]
      },
      {
        "type": "category",
        "title": "Tab Panel",
        "description": "The Tab Panel tool allows you to create a quiz game where students must select from a number of options (2, 3 or 4 tabs). Within each tab you can include feedback or information. You may choose a simple True/False or Yes/No format with 2 tabs or make a more complicated multiple choice scenario with 3 or 4 tabs.\n\nChoose the *Image Tab Panel* tool if you would like to include pictures in your quiz options.",
        "children": [
          {
            "type": "option",
            "title": "2 Tabs",
            "content": "<div class=\"panel panel-default dit-tab-panel\"> <div class=\"panel-heading\"> <h3 class=\"panel-title\">Panel title</h3> </div> <div class=\"panel-body\"> <p>Lorem ipsum dolor sit amet, consectetur adipisicing elit, sed do eiusmod tempor incididunt ut labore et dolore magna aliqua. Ut enim ad minim veniam, quis nostrud exercitation ullamco laboris nisi ut aliquip ex ea commodo consequat. Duis aute irure dolor in reprehenderit in voluptate velit esse cillum dolore eu fugiat nulla pariatur. Excepteur sint occaecat cupidatat non proident, sunt in culpa qui officia deserunt mollit anim id est laborum.</p>%END_CONTENT% </div><!-- Nav tabs --> <div class=\"tab-container\"> <ul class=\"nav nav-tabs nav-justified\" role=\"tablist\"> <li><a href=\"#{{%SUID_1%}}\" role=\"tab\" data-toggle=\"tab\">Yes</a></li> <li><a href=\"#{{%SUID_2%}}\" role=\"tab\" data-toggle=\"tab\">No</a></li> </ul> <!-- Tab panes --> <div class=\"tab-content\"> <div class=\"tab-pane dit-tab-1\" id=\"{{%SUID_1%}}\"> <p>[Insert YES content here]</p> </div> <div class=\"tab-pane dit-tab-2\" id=\"{{%SUID_2%}}\"> <p>[Insert NO content here]</p> </div> </div> </div> </div>"
          },
          {
            "type": "option",
            "title": "3 Tabs",
            "content": "<div class=\"panel panel-default dit-tab-panel\"> <div class=\"panel-heading\"> <h3 class=\"panel-title\">Panel title</h3> </div> <div class=\"panel-body\"> <p>Lorem ipsum dolor sit amet, consectetur adipisicing elit, sed do eiusmod tempor incididunt ut labore et dolore magna aliqua. Ut enim ad minim veniam, quis nostrud exercitation ullamco laboris nisi ut aliquip ex ea commodo consequat. Duis aute irure dolor in reprehenderit in voluptate velit esse cillum dolore eu fugiat nulla pariatur. Excepteur sint occaecat cupidatat non proident, sunt in culpa qui officia deserunt mollit anim id est laborum.</p>%END_CONTENT% </div><!-- Nav tabs --> <div class=\"tab-container\"> <ul class=\"nav nav-tabs nav-justified\" role=\"tablist\"> <li><a href=\"#{{%SUID_1%}}\" role=\"tab\" data-toggle=\"tab\">Option 1</a></li> <li><a href=\"#{{%SUID_2%}}\" role=\"tab\" data-toggle=\"tab\">Option 2</a></li> <li><a href=\"#{{%SUID_3%}}\" role=\"tab\" data-toggle=\"tab\">Option 3</a></li> </ul> <!-- Tab panes --> <div class=\"tab-content\"> <div class=\"tab-pane dit-tab-1\" id=\"{{%SUID_1%}}\"> <p>[Insert OPTION 1 content here]</p> </div> <div class=\"tab-pane dit-tab-2\" id=\"{{%SUID_2%}}\"> <p>[Insert OPTION 2 content here]</p> </div> <div class=\"tab-pane dit-tab-3\" id=\"{{%SUID_3%}}\"> <p>[Insert OPTION 3 content here]</p> </div> </div> </div> </div>"
          },
          {
            "type": "option",
            "title": "4 Tabs",
            "content": "<div class=\"panel panel-default dit-tab-panel\"> <div class=\"panel-heading\"> <h3 class=\"panel-title\">Panel title</h3> </div> <div class=\"panel-body\"> <p>Lorem ipsum dolor sit amet, consectetur adipisicing elit, sed do eiusmod tempor incididunt ut labore et dolore magna aliqua. Ut enim ad minim veniam, quis nostrud exercitation ullamco laboris nisi ut aliquip ex ea commodo consequat. Duis aute irure dolor in reprehenderit in voluptate velit esse cillum dolore eu fugiat nulla pariatur. Excepteur sint occaecat cupidatat non proident, sunt in culpa qui officia deserunt mollit anim id est laborum.</p>%END_CONTENT% </div><!-- Nav tabs --> <div class=\"tab-container\"> <ul class=\"nav nav-tabs nav-justified\" role=\"tablist\"> <li><a href=\"#{{%SUID_1%}}\" role=\"tab\" data-toggle=\"tab\">Option 1</a></li> <li><a href=\"#{{%SUID_2%}}\" role=\"tab\" data-toggle=\"tab\">Option 2</a></li> <li><a href=\"#{{%SUID_3%}}\" role=\"tab\" data-toggle=\"tab\">Option 3</a></li> <li><a href=\"#{{%SUID_4%}}\" role=\"tab\" data-toggle=\"tab\">Option 4</a></li> </ul> <!-- Tab panes --> <div class=\"tab-content\"> <div class=\"tab-pane dit-tab-1\" id=\"{{%SUID_1%}}\"> <p>[Insert OPTION 1 content here]</p> </div> <div class=\"tab-pane dit-tab-2\" id=\"{{%SUID_2%}}\"> <p>[Insert OPTION 2 content here]</p> </div> <div class=\"tab-pane dit-tab-3\" id=\"{{%SUID_3%}}\"> <p>[Insert OPTION 3 content here]</p> </div> <div class=\"tab-pane dit-tab-4\" id=\"{{%SUID_4%}}\"> <p>[Insert OPTION 4 content here]</p> </div> </div> </div> </div>"
          }
        ]
      }
    ]
  },
  {
    "type": "category",
    "title": "Spacers",
    "description": "The MyLO system automatically removes spaces from between items when pages are displayed, sometimes making items appear too close together. These spacers are used to insert a space that persists. Spacers will be shown in the editor as a grey/blue bar with the word 'spacer', but will not be shown when the page is viewed.\n\nConversely, sometimes you want to stop things floating up next to an image or other element that takes up only part of a page.\n\nInsert a 'Wrapping Break' spacer where you want to force a break to prevent the following content from wrapping around the preceeding content (such as an image or table). Note that the 'Wrapping Break' spacer does not add any space to the page.\n\nChoose the page spacer size that you wish to use – Wrapping Break, Small, Medium or Large",
    "children": [
      {
        "type": "option",
        "title": "Wrapping break",
        "content": "<div class=\"dit-spacer dit-spacer-invisible text-center\">[Wrapping Break (invisible)]</div><p><br></p>"
      },
      {
        "type": "option",
        "title": "Small",
        "content": "<div class=\"dit-spacer dit-spacer-small text-center\">[SPACER]</div><p><br></p>"
      },
      {
        "type": "option",
        "title": "Medium",
        "content": "<div class=\"dit-spacer dit-spacer-medium text-center\">[SPACER]</div><p><br></p>"
      },
      {
        "type": "option",
        "title": "Large",
        "content": "<div class=\"dit-spacer dit-spacer-large text-center\">[SPACER]</div><p><br></p>"
      }
    ]
  }
]